<?xml version="1.0" encoding="UTF-8"?>
<svg width="192px" height="192px" viewBox="0 0 192 192" version="1.1" xmlns="http://www.w3.org/2000/svg" xmlns:xlink="http://www.w3.org/1999/xlink">
    <!-- Generator: Sketch 50.2 (55047) - http://www.bohemiancoding.com/sketch -->
    <title>mission-icon</title>
    <desc>Created with Sketch.</desc>
    <defs></defs>
    <g id="mission-icon" stroke="none" stroke-width="1" fill="none" fill-rule="evenodd">
        <rect id="Rectangle" fill="#FFFFFF" x="0" y="0" width="192" height="192"></rect>
        <g id="Group" transform="translate(48.000000, 50.000000)">
            <path d="M64.5443686,40.5134 C65.0610597,42.1594 65.3400126,43.9089 65.3400126,45.7219 C65.3400126,55.3714 57.4484105,63.2219 47.7483895,63.2219 C45.9258974,63.2219 44.1672377,62.9444 42.5126199,62.4304 C44.746756,69.5444 51.4310702,74.7219 59.308599,74.7219 C69.0086199,74.7219 76.900222,66.8714 76.900222,57.2219 C76.900222,49.3854 71.6956147,42.7359 64.5443686,40.5134" id="Fill-1" fill="#DFE0E0"></path>
            <path d="M71.0930764,90.94455 C81.4062911,85.70405 79.4274848,61.32055 66.6735581,36.48305 C53.9196314,11.64555 35.2202387,-4.24095 24.9070241,0.99955" id="Stroke-3" stroke="#48515A"></path>
            <path d="M23.2227016,2.1125 C14.8626597,9.0955 17.3189529,32.077 29.3269948,55.461 C41.7074764,79.5725 59.6921466,95.2485 70.1677068,91.3505" id="Stroke-7" stroke="#48515A" stroke-linecap="round" stroke-linejoin="round" stroke-dasharray="0,2.016999959945679"></path>
            <path d="M-0.00010052356,45.97215 C-0.00010052356,57.49265 21.3777424,66.83165 47.7485906,66.83165 C74.1194387,66.83165 95.4972817,57.49215 95.4972817,45.97215" id="Stroke-11" stroke="#48515A"></path>
            <path d="M95.2859812,43.9958 C93.0076147,33.4023 72.5942953,25.1123 47.7488921,25.1123 C22.1395099,25.1123 1.23915393,33.9198 0.0529759162,44.9793" id="Stroke-15" stroke="#48515A" stroke-linecap="round" stroke-linejoin="round" stroke-dasharray="0,1.991000056266785"></path>
            <path d="M70.5902576,0.99975 C80.9034723,6.24025 78.924666,30.62325 66.1707393,55.46075 C53.4168126,80.29875 34.7174199,96.18525 24.4042052,90.94475" id="Stroke-19" stroke="#48515A"></path>
            <path d="M22.7195812,89.8315 C14.3595393,82.849 16.8158325,59.8675 28.8238743,36.483 C41.2048586,12.3715 59.1890262,-3.3045 69.6645864,0.594" id="Stroke-23" stroke="#48515A" stroke-linecap="round" stroke-linejoin="round" stroke-dasharray="0,2.016999959945679"></path>
            <path d="M40.1428272,28.28805 C42.473466,27.28055 45.0453613,26.72205 47.7484398,26.72205 C58.2968796,26.72205 66.8479162,35.22855 66.8479162,45.72205 C66.8479162,56.21505 58.2968796,64.72205 47.7484398,64.72205 C37.2,64.72205 28.6489634,56.21505 28.6489634,45.72205 C28.6489634,40.85705 30.4870366,36.41905 33.5102827,33.05755" id="Stroke-27" stroke="#48515A"></path>
            <path d="M47.7483895,28.2219 C38.0483686,28.2219 30.1567665,36.0724 30.1567665,45.7219 C30.1567665,55.3714 38.0483686,63.2219 47.7483895,63.2219 C57.4484105,63.2219 65.3400126,55.3714 65.3400126,45.7219 C65.3400126,36.0724 57.4484105,28.2219 47.7483895,28.2219" id="Fill-29" fill="#F58E70"></path>
            <path d="M47.7483895,28.2219 C38.0483686,28.2219 30.1567665,36.0724 30.1567665,45.7219 C30.1567665,55.3714 38.0483686,63.2219 47.7483895,63.2219 C57.4484105,63.2219 65.3400126,55.3714 65.3400126,45.7219 C65.3400126,36.0724 57.4484105,28.2219 47.7483895,28.2219" id="Fill-31" fill="#E71D36"></path>
            <path d="M34.3976042,32.00315 L34.3976042,31.98765" id="Stroke-33" stroke="#48515A" stroke-linecap="round" stroke-linejoin="round"></path>
            <path d="M38.7955099,28.8625 L38.7955099,28.847" id="Stroke-35" stroke="#48515A" stroke-linecap="round" stroke-linejoin="round"></path>
            <path d="M80.8374785,13.88865 C80.8374785,15.82165 79.2622743,17.38865 77.3191539,17.38865 C75.3760335,17.38865 73.8008293,15.82165 73.8008293,13.88865 C73.8008293,11.95565 75.3760335,10.38865 77.3191539,10.38865 C79.2622743,10.38865 80.8374785,11.95565 80.8374785,13.88865" id="Fill-37" fill="#FFFFFF"></path>
            <path d="M80.8374785,13.88865 C80.8374785,15.82165 79.2622743,17.38865 77.3191539,17.38865 C75.3760335,17.38865 73.8008293,15.82165 73.8008293,13.88865 C73.8008293,11.95565 75.3760335,10.38865 77.3191539,10.38865 C79.2622743,10.38865 80.8374785,11.95565 80.8374785,13.88865 Z" id="Stroke-39" stroke="#48515A"></path>
            <path d="M77.3191539,11.88865 C76.2103791,11.88865 75.3086827,12.78565 75.3086827,13.88865 C75.3086827,14.99165 76.2103791,15.88865 77.3191539,15.88865 C78.4279288,15.88865 79.3296251,14.99165 79.3296251,13.88865 C79.3296251,12.78565 78.4279288,11.88865 77.3191539,11.88865" id="Fill-41" fill="#E71D36"></path>
            <path d="M81.0887874,79.88865 C81.0887874,81.82165 79.5135832,83.38865 77.5704628,83.38865 C75.6273424,83.38865 74.0521382,81.82165 74.0521382,79.88865 C74.0521382,77.95565 75.6273424,76.38865 77.5704628,76.38865 C79.5135832,76.38865 81.0887874,77.95565 81.0887874,79.88865" id="Fill-43" fill="#FFFFFF"></path>
            <path d="M81.0887874,79.88865 C81.0887874,81.82165 79.5135832,83.38865 77.5704628,83.38865 C75.6273424,83.38865 74.0521382,81.82165 74.0521382,79.88865 C74.0521382,77.95565 75.6273424,76.38865 77.5704628,76.38865 C79.5135832,76.38865 81.0887874,77.95565 81.0887874,79.88865 Z" id="Stroke-45" stroke="#48515A"></path>
            <path d="M77.5704628,77.88865 C76.461688,77.88865 75.5599916,78.78565 75.5599916,79.88865 C75.5599916,80.99165 76.461688,81.88865 77.5704628,81.88865 C78.6792377,81.88865 79.580934,80.99165 79.580934,79.88865 C79.580934,78.78565 78.6792377,77.88865 77.5704628,77.88865" id="Fill-47" fill="#E71D36"></path>
            <path d="M12.2301487,58.0554 C12.2301487,59.9884 10.6549445,61.5554 8.71182408,61.5554 C6.76870366,61.5554 5.19349948,59.9884 5.19349948,58.0554 C5.19349948,56.1224 6.76870366,54.5554 8.71182408,54.5554 C10.6549445,54.5554 12.2301487,56.1224 12.2301487,58.0554" id="Fill-49" fill="#FFFFFF"></path>
            <path d="M12.2301487,58.0554 C12.2301487,59.9884 10.6549445,61.5554 8.71182408,61.5554 C6.76870366,61.5554 5.19349948,59.9884 5.19349948,58.0554 C5.19349948,56.1224 6.76870366,54.5554 8.71182408,54.5554 C10.6549445,54.5554 12.2301487,56.1224 12.2301487,58.0554 Z" id="Stroke-51" stroke="#48515A"></path>
            <path d="M8.71182408,56.0554 C7.60304921,56.0554 6.70135288,56.9524 6.70135288,58.0554 C6.70135288,59.1584 7.60304921,60.0554 8.71182408,60.0554 C9.82059895,60.0554 10.7222953,59.1584 10.7222953,58.0554 C10.7222953,56.9524 9.82059895,56.0554 8.71182408,56.0554" id="Fill-53" fill="#E71D36"></path>
            <path d="M9.54943665,20.2219 C9.54943665,21.0504 8.87442094,21.7219 8.04158325,21.7219 C7.20874555,21.7219 6.53372984,21.0504 6.53372984,20.2219 C6.53372984,19.3934 7.20874555,18.7219 8.04158325,18.7219 C8.87442094,18.7219 9.54943665,19.3934 9.54943665,20.2219 Z" id="Stroke-55" stroke="#475059"></path>
            <path d="M85.9473424,72.7219 C85.9473424,72.1699 86.397688,71.7219 86.952578,71.7219 C87.5074681,71.7219 87.9578136,72.1699 87.9578136,72.7219 C87.9578136,73.2744 87.5074681,73.7219 86.952578,73.7219 C86.397688,73.7219 85.9473424,73.2744 85.9473424,72.7219" id="Fill-57" fill="#E71D36"></path>
            <path d="M12.5651435,75.7219 C12.5651435,75.1699 13.015489,74.7219 13.5703791,74.7219 C14.1252691,74.7219 14.5756147,75.1699 14.5756147,75.7219 C14.5756147,76.2744 14.1252691,76.7219 13.5703791,76.7219 C13.015489,76.7219 12.5651435,76.2744 12.5651435,75.7219" id="Fill-59" fill="#E71D36"></path>
            <path d="M32.6698555,11.7219 C32.6698555,12.2744 32.2195099,12.7219 31.6646199,12.7219 C31.1097298,12.7219 30.6593843,12.2744 30.6593843,11.7219 C30.6593843,11.1699 31.1097298,10.7219 31.6646199,10.7219 C32.2195099,10.7219 32.6698555,11.1699 32.6698555,11.7219" id="Fill-61" fill="#E71D36"></path>
            <path d="M92.4813738,72.7219 L92.4813738,74.7219" id="Stroke-63" stroke="#48515A"></path>
            <path d="M92.4813738,77.7219 L92.4813738,79.7219" id="Stroke-65" stroke="#48515A"></path>
            <path d="M88.9630492,76.2219 L90.9735204,76.2219" id="Stroke-67" stroke="#48515A"></path>
            <path d="M93.9892272,76.2219 L95.9996984,76.2219" id="Stroke-69" stroke="#48515A"></path>
            <path d="M8.04158325,6.7219 L8.04158325,8.7219" id="Stroke-71" stroke="#48515A"></path>
            <path d="M8.04158325,11.7219 L8.04158325,13.7219" id="Stroke-73" stroke="#48515A"></path>
            <path d="M4.52325864,10.2219 L6.53372984,10.2219" id="Stroke-75" stroke="#48515A"></path>
            <path d="M9.54943665,10.2219 L11.5599079,10.2219" id="Stroke-77" stroke="#48515A"></path>
            <path d="M30.1567665,74.7219 L30.1567665,76.7219" id="Stroke-79" stroke="#48515A"></path>
            <path d="M30.1567665,79.7219 L30.1567665,81.7219" id="Stroke-81" stroke="#48515A"></path>
            <path d="M26.6384419,78.2219 L28.6489131,78.2219" id="Stroke-83" stroke="#48515A"></path>
            <path d="M31.6646199,78.2219 L33.6750911,78.2219" id="Stroke-85" stroke="#48515A"></path>
            <path d="M45.8981529,56.7922 C47.8839958,53.6807 49.7773571,50.3942 51.5395351,46.9622 C53.0770429,43.9692 54.4702995,40.9582 55.7107602,37.9652 C57.8755351,43.3372 59.5331686,48.6327 60.6193257,53.6502 C56.2274513,55.0432 51.2590743,56.1172 45.8981529,56.7922 M61.578823,53.3377 C60.413755,47.9912 58.6179016,42.3402 56.2525822,36.6197 C56.9255874,34.9367 57.5478283,33.2612 58.1203099,31.5992 C57.8413571,31.3962 57.5558702,31.2022 57.2648545,31.0152 C56.778823,32.4387 56.2571058,33.8717 55.6961843,35.3122 C54.7894618,33.1927 53.8073466,31.0677 52.7543623,28.9482 C52.3306555,28.8227 51.9009173,28.7122 51.464645,28.6187 C52.8151791,31.2867 54.0536293,33.9652 55.1664251,36.6302 C53.8405194,39.9112 52.3331686,43.2187 50.6443728,46.5077 C48.7479958,50.2007 46.7179225,53.6902 44.6064251,56.9467 C41.4610429,57.3012 38.1839749,57.5102 34.8214618,57.5757 C35.1371058,57.9162 35.4663204,58.2432 35.8075979,58.5577 C38.5564147,58.4797 41.2620063,58.3022 43.9002471,58.0267 C43.0020691,59.3782 42.0888126,60.6847 41.1660063,61.9462 C41.4876817,62.0757 41.8138806,62.1952 42.1441005,62.3062 C43.1820063,60.8797 44.202823,59.4052 45.1995141,57.8812 C50.8082262,57.2222 56.0907393,56.1227 60.8259016,54.6182 C60.9837236,55.3942 61.1234513,56.1602 61.2531267,56.9212 C61.5441424,56.5747 61.819577,56.2152 62.0829487,55.8467 C61.9889592,55.3342 61.8949696,54.8222 61.7884147,54.3027 C62.3247079,54.1237 62.8509487,53.9377 63.372666,53.7482 C63.5887916,53.3337 63.7918492,52.9117 63.9748021,52.4787 C63.1972524,52.7757 62.4001005,53.0632 61.578823,53.3377" id="Fill-87" fill="#010E1A"></path>
            <path d="M63.5808503,45.7219 C63.5808503,37.0374 56.4783581,29.9719 47.7483895,29.9719" id="Stroke-89" stroke="#FFFFFF"></path>
        </g>
    </g>
</svg>